4 Week 3: GROUP BY/HAVING – Intro to SQL
…
We can also load in a spreadsheet as a temporary table. Suppose we want to load in the following:

read_csv("data/temp_cost.csv")

Rows: 51 Columns: 3
── Column specification ────────────────────────────────────────────────────────
Delimiter: ","
chr (1): concept_name
dbl (2): procedure_concept_id, cost

ℹ Use `spec()` to retrieve the full column specification for this data.
ℹ Specify the column types or set `show_col_types = FALSE` to quiet this message.

# A tibble: 51 × 3
   concept_name                          procedure_concept_id  cost
   <chr>                                                <dbl> <dbl>
 1 Cognitive and behavioral therapy                   4043071  3300
 2 Nasal sinus endoscopy                              4010253  3000
 3 Intubation                                         4202832  4000
 4 Removal of subcutaneous contraceptive              4199276  1800
 5 Radiography of humerus                             4047491  2300
 6 Radiologic examination of knee                     4252419  4100
 7 Lung volume reduction surgery                      4323902   730
 8 Sputum examination                                 4151422  4000
 9 Percutaneous coronary intervention                 4216130  1800
10 Injection of epinephrine                           4197460  2600
# ℹ 41 more rows
…
